(kicad_sch (version 20221004) (generator eeschema)

  (uuid a442c838-4dd5-4486-8afe-ccab26ad4148)

  (paper "A4")

  (lib_symbols
    (symbol "Device:L" (pin_numbers hide) (pin_names (offset 1.016) hide) (in_bom yes) (on_board yes)
      (property "Reference" "L" (at -1.27 0 90)
        (effects (font (size 1.27 1.27)))
      )
      (property "Value" "L" (at 1.905 0 90)
        (effects (font (size 1.27 1.27)))
      )
      (property "Footprint" "" (at 0 0 0)
        (effects (font (size 1.27 1.27)) hide)
      )
      (property "Datasheet" "~" (at 0 0 0)
        (effects (font (size 1.27 1.27)) hide)
      )
      (property "ki_keywords" "inductor choke coil reactor magnetic" (at 0 0 0)
        (effects (font (size 1.27 1.27)) hide)
      )
      (property "ki_description" "Inductor" (at 0 0 0)
        (effects (font (size 1.27 1.27)) hide)
      )
      (property "ki_fp_filters" "Choke_* *Coil* Inductor_* L_*" (at 0 0 0)
        (effects (font (size 1.27 1.27)) hide)
      )
      (symbol "L_0_1"
        (arc (start 0 -2.54) (mid 0.6323 -1.905) (end 0 -1.27)
          (stroke (width 0) (type default))
          (fill (type none))
        )
        (arc (start 0 -1.27) (mid 0.6323 -0.635) (end 0 0)
          (stroke (width 0) (type default))
          (fill (type none))
        )
        (arc (start 0 0) (mid 0.6323 0.635) (end 0 1.27)
          (stroke (width 0) (type default))
          (fill (type none))
        )
        (arc (start 0 1.27) (mid 0.6323 1.905) (end 0 2.54)
          (stroke (width 0) (type default))
          (fill (type none))
        )
      )
      (symbol "L_1_1"
        (pin passive line (at 0 3.81 270) (length 1.27)
          (name "1" (effects (font (size 1.27 1.27))))
          (number "1" (effects (font (size 1.27 1.27))))
        )
        (pin passive line (at 0 -3.81 90) (length 1.27)
          (name "2" (effects (font (size 1.27 1.27))))
          (number "2" (effects (font (size 1.27 1.27))))
        )
      )
    )
    (symbol "Device:R" (pin_numbers hide) (pin_names (offset 0)) (in_bom yes) (on_board yes)
      (property "Reference" "R" (at 2.032 0 90)
        (effects (font (size 1.27 1.27)))
      )
      (property "Value" "R" (at 0 0 90)
        (effects (font (size 1.27 1.27)))
      )
      (property "Footprint" "" (at -1.778 0 90)
        (effects (font (size 1.27 1.27)) hide)
      )
      (property "Datasheet" "~" (at 0 0 0)
        (effects (font (size 1.27 1.27)) hide)
      )
      (property "ki_keywords" "R res resistor" (at 0 0 0)
        (effects (font (size 1.27 1.27)) hide)
      )
      (property "ki_description" "Resistor" (at 0 0 0)
        (effects (font (size 1.27 1.27)) hide)
      )
      (property "ki_fp_filters" "R_*" (at 0 0 0)
        (effects (font (size 1.27 1.27)) hide)
      )
      (symbol "R_0_1"
        (rectangle (start -1.016 -2.54) (end 1.016 2.54)
          (stroke (width 0.254) (type default))
          (fill (type none))
        )
      )
      (symbol "R_1_1"
        (pin passive line (at 0 3.81 270) (length 1.27)
          (name "~" (effects (font (size 1.27 1.27))))
          (number "1" (effects (font (size 1.27 1.27))))
        )
        (pin passive line (at 0 -3.81 90) (length 1.27)
          (name "~" (effects (font (size 1.27 1.27))))
          (number "2" (effects (font (size 1.27 1.27))))
        )
      )
    )
    (symbol "Simulation_SPICE:VDC" (pin_numbers hide) (pin_names (offset 0.0254)) (in_bom yes) (on_board yes)
      (property "Reference" "V" (at 2.54 2.54 0)
        (effects (font (size 1.27 1.27)) (justify left))
      )
      (property "Value" "VDC" (at 2.54 0 0)
        (effects (font (size 1.27 1.27)) (justify left))
      )
      (property "Footprint" "" (at 0 0 0)
        (effects (font (size 1.27 1.27)) hide)
      )
      (property "Datasheet" "~" (at 0 0 0)
        (effects (font (size 1.27 1.27)) hide)
      )
      (property "Spice_Netlist_Enabled" "Y" (at 0 0 0)
        (effects (font (size 1.27 1.27)) (justify left) hide)
      )
      (property "Spice_Primitive" "V" (at 0 0 0)
        (effects (font (size 1.27 1.27)) (justify left) hide)
      )
      (property "Spice_Model" "dc(1)" (at 2.54 -2.54 0)
        (effects (font (size 1.27 1.27)) (justify left))
      )
      (property "ki_keywords" "simulation" (at 0 0 0)
        (effects (font (size 1.27 1.27)) hide)
      )
      (property "ki_description" "Voltage source, DC" (at 0 0 0)
        (effects (font (size 1.27 1.27)) hide)
      )
      (symbol "VDC_0_0"
        (polyline
          (pts
            (xy -1.27 0.254)
            (xy 1.27 0.254)
          )
          (stroke (width 0) (type default))
          (fill (type none))
        )
        (polyline
          (pts
            (xy -0.762 -0.254)
            (xy -1.27 -0.254)
          )
          (stroke (width 0) (type default))
          (fill (type none))
        )
        (polyline
          (pts
            (xy 0.254 -0.254)
            (xy -0.254 -0.254)
          )
          (stroke (width 0) (type default))
          (fill (type none))
        )
        (polyline
          (pts
            (xy 1.27 -0.254)
            (xy 0.762 -0.254)
          )
          (stroke (width 0) (type default))
          (fill (type none))
        )
        (text "+" (at 0 1.905 0)
          (effects (font (size 1.27 1.27)))
        )
      )
      (symbol "VDC_0_1"
        (circle (center 0 0) (radius 2.54)
          (stroke (width 0.254) (type default))
          (fill (type background))
        )
      )
      (symbol "VDC_1_1"
        (pin passive line (at 0 5.08 270) (length 2.54)
          (name "~" (effects (font (size 1.27 1.27))))
          (number "1" (effects (font (size 1.27 1.27))))
        )
        (pin passive line (at 0 -5.08 90) (length 2.54)
          (name "~" (effects (font (size 1.27 1.27))))
          (number "2" (effects (font (size 1.27 1.27))))
        )
      )
    )
    (symbol "Simulation_SPICE:VSIN" (pin_numbers hide) (pin_names (offset 0.0254)) (in_bom yes) (on_board yes)
      (property "Reference" "V" (at 2.54 2.54 0)
        (effects (font (size 1.27 1.27)) (justify left))
      )
      (property "Value" "VSIN" (at 2.54 0 0)
        (effects (font (size 1.27 1.27)) (justify left))
      )
      (property "Footprint" "" (at 0 0 0)
        (effects (font (size 1.27 1.27)) hide)
      )
      (property "Datasheet" "~" (at 0 0 0)
        (effects (font (size 1.27 1.27)) hide)
      )
      (property "Spice_Netlist_Enabled" "Y" (at 0 0 0)
        (effects (font (size 1.27 1.27)) (justify left) hide)
      )
      (property "Spice_Primitive" "V" (at 0 0 0)
        (effects (font (size 1.27 1.27)) (justify left) hide)
      )
      (property "Spice_Model" "sin(0 1 1k)" (at 2.54 -2.54 0)
        (effects (font (size 1.27 1.27)) (justify left))
      )
      (property "ki_keywords" "simulation" (at 0 0 0)
        (effects (font (size 1.27 1.27)) hide)
      )
      (property "ki_description" "Voltage source, sinusoidal" (at 0 0 0)
        (effects (font (size 1.27 1.27)) hide)
      )
      (symbol "VSIN_0_0"
        (arc (start 0 0) (mid -0.635 0.6323) (end -1.27 0)
          (stroke (width 0) (type default))
          (fill (type none))
        )
        (arc (start 0 0) (mid 0.635 -0.6323) (end 1.27 0)
          (stroke (width 0) (type default))
          (fill (type none))
        )
        (text "+" (at 0 1.905 0)
          (effects (font (size 1.27 1.27)))
        )
      )
      (symbol "VSIN_0_1"
        (circle (center 0 0) (radius 2.54)
          (stroke (width 0.254) (type default))
          (fill (type background))
        )
      )
      (symbol "VSIN_1_1"
        (pin passive line (at 0 5.08 270) (length 2.54)
          (name "~" (effects (font (size 1.27 1.27))))
          (number "1" (effects (font (size 1.27 1.27))))
        )
        (pin passive line (at 0 -5.08 90) (length 2.54)
          (name "~" (effects (font (size 1.27 1.27))))
          (number "2" (effects (font (size 1.27 1.27))))
        )
      )
    )
    (symbol "power:GND" (power) (pin_names (offset 0)) (in_bom yes) (on_board yes)
      (property "Reference" "#PWR" (at 0 -6.35 0)
        (effects (font (size 1.27 1.27)) hide)
      )
      (property "Value" "GND" (at 0 -3.81 0)
        (effects (font (size 1.27 1.27)))
      )
      (property "Footprint" "" (at 0 0 0)
        (effects (font (size 1.27 1.27)) hide)
      )
      (property "Datasheet" "" (at 0 0 0)
        (effects (font (size 1.27 1.27)) hide)
      )
      (property "ki_keywords" "power-flag" (at 0 0 0)
        (effects (font (size 1.27 1.27)) hide)
      )
      (property "ki_description" "Power symbol creates a global label with name \"GND\" , ground" (at 0 0 0)
        (effects (font (size 1.27 1.27)) hide)
      )
      (symbol "GND_0_1"
        (polyline
          (pts
            (xy 0 0)
            (xy 0 -1.27)
            (xy 1.27 -1.27)
            (xy 0 -2.54)
            (xy -1.27 -1.27)
            (xy 0 -1.27)
          )
          (stroke (width 0) (type default))
          (fill (type none))
        )
      )
      (symbol "GND_1_1"
        (pin power_in line (at 0 0 270) (length 0) hide
          (name "GND" (effects (font (size 1.27 1.27))))
          (number "1" (effects (font (size 1.27 1.27))))
        )
      )
    )
  )


  (wire (pts (xy 114.3 76.2) (xy 139.7 76.2))
    (stroke (width 0) (type default))
    (uuid 12e159da-aa7d-4046-a4b1-09721c80fe01)
  )
  (wire (pts (xy 165.1 86.36) (xy 165.1 88.9))
    (stroke (width 0) (type default))
    (uuid 4a5e7d13-141b-4818-97e1-9ddbb80f318a)
  )
  (wire (pts (xy 114.3 88.9) (xy 114.3 87.63))
    (stroke (width 0) (type default))
    (uuid 4bd96004-bd58-4b69-8f69-d40488cbc2e1)
  )
  (wire (pts (xy 152.4 76.2) (xy 152.4 78.74))
    (stroke (width 0) (type default))
    (uuid 526fc8d5-e3b4-4fb6-9bbd-f72e88d122f0)
  )
  (wire (pts (xy 152.4 76.2) (xy 165.1 76.2))
    (stroke (width 0) (type default))
    (uuid 551a057e-701e-46b2-962a-cc3ddf2dec41)
  )
  (wire (pts (xy 114.3 101.6) (xy 127 101.6))
    (stroke (width 0) (type default))
    (uuid 593d1288-f12d-4e39-a004-5a5d9f25683e)
  )
  (wire (pts (xy 127 111.76) (xy 127 114.3))
    (stroke (width 0) (type default))
    (uuid 5dcc6f72-3489-48d2-a999-b127ffe2692b)
  )
  (wire (pts (xy 139.7 86.36) (xy 139.7 88.9))
    (stroke (width 0) (type default))
    (uuid 8698f9eb-c83c-4445-87c2-ee33fd1f28a4)
  )
  (wire (pts (xy 127 101.6) (xy 127 104.14))
    (stroke (width 0) (type default))
    (uuid 8b185feb-2847-4990-bb06-ba8b71c53c34)
  )
  (wire (pts (xy 114.3 76.2) (xy 114.3 77.47))
    (stroke (width 0) (type default))
    (uuid 9b6abdf8-e409-4b69-be35-aaefd16e1b0b)
  )
  (wire (pts (xy 165.1 76.2) (xy 165.1 78.74))
    (stroke (width 0) (type default))
    (uuid a504d5bd-95e4-4f04-8718-80b4350ab7ab)
  )
  (wire (pts (xy 114.3 113.03) (xy 114.3 114.3))
    (stroke (width 0) (type default))
    (uuid aed8ca17-8c25-493f-83a4-c991646db757)
  )
  (wire (pts (xy 152.4 86.36) (xy 152.4 88.9))
    (stroke (width 0) (type default))
    (uuid c05484ba-2868-4e2a-9055-f01b69f40b4e)
  )
  (wire (pts (xy 114.3 102.87) (xy 114.3 101.6))
    (stroke (width 0) (type default))
    (uuid c547d5cd-cfe6-4f18-88ce-ebd7a18851f1)
  )
  (wire (pts (xy 139.7 78.74) (xy 139.7 76.2))
    (stroke (width 0) (type default))
    (uuid c575dbbf-6f76-4a5c-af2d-bc1844739369)
  )

  (text ".tran 1u 10m" (at 88.9 116.84 0)
    (effects (font (size 1.27 1.27)) (justify left bottom))
    (uuid 12c70666-8e01-4564-ba80-566a7722547a)
  )
  (text ".param k=0\nK12 L1 L2 {k}" (at 138.43 73.66 0)
    (effects (font (size 1.27 1.27)) (justify left bottom))
    (uuid 503dd1f3-122c-4522-bda0-61ccab9d9d14)
  )
  (text ".control\nalterparam k=0.9\nreset\n.endc" (at 138.43 68.58 0)
    (effects (font (size 1.27 1.27)) (justify left bottom))
    (uuid a058a379-6994-404d-a9a1-17c467c1e639)
  )
  (text ".subckt RESISTOR 1 2\nR 1 2 1k\n.ends" (at 88.9 111.76 0)
    (effects (font (size 1.27 1.27)) (justify left bottom))
    (uuid a806a0b3-52f9-4a96-ac22-fb65972c0ace)
  )

  (label "r" (at 127 101.6 0) (fields_autoplaced)
    (effects (font (size 1.27 1.27)) (justify left bottom))
    (uuid 460c0234-3918-47f5-b1e0-8038e11f2300)
  )
  (label "out" (at 165.1 76.2 0) (fields_autoplaced)
    (effects (font (size 1.27 1.27)) (justify left bottom))
    (uuid 5d44c42a-eaaf-41b4-aed0-5b7161b2e9bf)
  )
  (label "in" (at 114.3 76.2 0) (fields_autoplaced)
    (effects (font (size 1.27 1.27)) (justify left bottom))
    (uuid fe2fff8f-6150-480a-b1d6-76f0dbc514c3)
  )

  (symbol (lib_id "power:GND") (at 165.1 88.9 0) (unit 1)
    (in_bom yes) (on_board yes) (dnp no) (fields_autoplaced)
    (uuid 09a419c4-55ec-4f63-883d-ac849651dd08)
    (property "Reference" "#PWR06" (at 165.1 95.25 0)
      (effects (font (size 1.27 1.27)) hide)
    )
    (property "Value" "GND" (at 165.1 93.98 0)
      (effects (font (size 1.27 1.27)))
    )
    (property "Footprint" "" (at 165.1 88.9 0)
      (effects (font (size 1.27 1.27)) hide)
    )
    (property "Datasheet" "" (at 165.1 88.9 0)
      (effects (font (size 1.27 1.27)) hide)
    )
    (pin "1" (uuid 8a427ab7-ec3c-4ee4-bdbc-f86d4f8e2841))
    (instances
      (project "directives"
        (path "/a442c838-4dd5-4486-8afe-ccab26ad4148"
          (reference "#PWR06") (unit 1) (value "GND") (footprint "")
        )
      )
    )
  )

  (symbol (lib_id "Simulation_SPICE:VDC") (at 114.3 107.95 0) (unit 1)
    (in_bom yes) (on_board yes) (dnp no) (fields_autoplaced)
    (uuid 1f2d1f32-eb72-4d63-8edf-d6a2e8fc8f39)
    (property "Reference" "VDC1" (at 118.11 106.045 0)
      (effects (font (size 1.27 1.27)) (justify left))
    )
    (property "Value" "1" (at 118.11 108.585 0)
      (effects (font (size 1.27 1.27)) (justify left))
    )
    (property "Footprint" "" (at 114.3 107.95 0)
      (effects (font (size 1.27 1.27)) hide)
    )
    (property "Datasheet" "~" (at 114.3 107.95 0)
      (effects (font (size 1.27 1.27)) hide)
    )
    (property "Sim.Device" "V" (at 114.3 107.95 0)
      (effects (font (size 1.27 1.27)) hide)
    )
    (pin "1" (uuid a16c3b98-7b67-49c9-8b37-b5d5ca2ceccb))
    (pin "2" (uuid b728ab4c-60f1-4317-8063-17a3a58f5bb4))
    (instances
      (project "directives"
        (path "/a442c838-4dd5-4486-8afe-ccab26ad4148"
          (reference "VDC1") (unit 1) (value "1") (footprint "")
        )
      )
    )
  )

  (symbol (lib_id "Device:R") (at 165.1 82.55 0) (unit 1)
    (in_bom yes) (on_board yes) (dnp no) (fields_autoplaced)
    (uuid 27904b23-eeb1-4c48-8475-3520eefa7335)
    (property "Reference" "R2" (at 167.64 81.915 0)
      (effects (font (size 1.27 1.27)) (justify left))
    )
    (property "Value" "1M" (at 167.64 84.455 0)
      (effects (font (size 1.27 1.27)) (justify left))
    )
    (property "Footprint" "" (at 163.322 82.55 90)
      (effects (font (size 1.27 1.27)) hide)
    )
    (property "Datasheet" "~" (at 165.1 82.55 0)
      (effects (font (size 1.27 1.27)) hide)
    )
    (property "Sim.Device" "R" (at 165.1 82.55 0)
      (effects (font (size 1.27 1.27)) hide)
    )
    (pin "1" (uuid f3a7863c-6d15-47c4-8c18-821cab9870f0))
    (pin "2" (uuid 6c3cfdb7-22f3-45ea-8a26-b9e9f1c4daa3))
    (instances
      (project "directives"
        (path "/a442c838-4dd5-4486-8afe-ccab26ad4148"
          (reference "R2") (unit 1) (value "1M") (footprint "")
        )
      )
    )
  )

  (symbol (lib_id "Device:R") (at 127 107.95 0) (unit 1)
    (in_bom yes) (on_board yes) (dnp no) (fields_autoplaced)
    (uuid 2a694340-5fb0-40b8-8520-e9075953b497)
    (property "Reference" "R1" (at 129.54 107.315 0)
      (effects (font (size 1.27 1.27)) (justify left))
    )
    (property "Value" "RESISTOR" (at 129.54 109.855 0)
      (effects (font (size 1.27 1.27)) (justify left))
    )
    (property "Footprint" "" (at 125.222 107.95 90)
      (effects (font (size 1.27 1.27)) hide)
    )
    (property "Datasheet" "~" (at 127 107.95 0)
      (effects (font (size 1.27 1.27)) hide)
    )
    (property "Sim.Device" "SPICE" (at 127 107.95 0)
      (effects (font (size 1.27 1.27)) hide)
    )
    (property "Sim.Pins" "1 2" (at 127 107.95 0)
      (effects (font (size 1.27 1.27)) hide)
    )
    (property "Sim.Params" "type=X model=RESISTOR" (at 127 107.95 0)
      (effects (font (size 1.27 1.27)) hide)
    )
    (pin "1" (uuid 1f696691-a52a-4cb4-8b3c-ccee759deace))
    (pin "2" (uuid 5460654d-86d0-471c-a559-86bd18275f2e))
    (instances
      (project "directives"
        (path "/a442c838-4dd5-4486-8afe-ccab26ad4148"
          (reference "R1") (unit 1) (value "RESISTOR") (footprint "")
        )
      )
    )
  )

  (symbol (lib_id "power:GND") (at 114.3 114.3 0) (unit 1)
    (in_bom yes) (on_board yes) (dnp no) (fields_autoplaced)
    (uuid 32975750-2ee4-414a-ab38-ad86d3acaf7c)
    (property "Reference" "#PWR02" (at 114.3 120.65 0)
      (effects (font (size 1.27 1.27)) hide)
    )
    (property "Value" "GND" (at 114.3 119.38 0)
      (effects (font (size 1.27 1.27)))
    )
    (property "Footprint" "" (at 114.3 114.3 0)
      (effects (font (size 1.27 1.27)) hide)
    )
    (property "Datasheet" "" (at 114.3 114.3 0)
      (effects (font (size 1.27 1.27)) hide)
    )
    (pin "1" (uuid d79ec692-fdbd-4f0a-9d21-91e46e685a38))
    (instances
      (project "directives"
        (path "/a442c838-4dd5-4486-8afe-ccab26ad4148"
          (reference "#PWR02") (unit 1) (value "GND") (footprint "")
        )
      )
    )
  )

  (symbol (lib_id "power:GND") (at 127 114.3 0) (unit 1)
    (in_bom yes) (on_board yes) (dnp no) (fields_autoplaced)
    (uuid 66d72bad-f51a-46b8-adf0-26524f8bf90e)
    (property "Reference" "#PWR03" (at 127 120.65 0)
      (effects (font (size 1.27 1.27)) hide)
    )
    (property "Value" "GND" (at 127 119.38 0)
      (effects (font (size 1.27 1.27)))
    )
    (property "Footprint" "" (at 127 114.3 0)
      (effects (font (size 1.27 1.27)) hide)
    )
    (property "Datasheet" "" (at 127 114.3 0)
      (effects (font (size 1.27 1.27)) hide)
    )
    (pin "1" (uuid 95ed7dd9-fb3f-4160-95d4-78c7c4bb2834))
    (instances
      (project "directives"
        (path "/a442c838-4dd5-4486-8afe-ccab26ad4148"
          (reference "#PWR03") (unit 1) (value "GND") (footprint "")
        )
      )
    )
  )

  (symbol (lib_id "power:GND") (at 152.4 88.9 0) (unit 1)
    (in_bom yes) (on_board yes) (dnp no) (fields_autoplaced)
    (uuid 694b98ef-b765-4df7-b4f4-dd7f1f1abd95)
    (property "Reference" "#PWR05" (at 152.4 95.25 0)
      (effects (font (size 1.27 1.27)) hide)
    )
    (property "Value" "GND" (at 152.4 93.98 0)
      (effects (font (size 1.27 1.27)))
    )
    (property "Footprint" "" (at 152.4 88.9 0)
      (effects (font (size 1.27 1.27)) hide)
    )
    (property "Datasheet" "" (at 152.4 88.9 0)
      (effects (font (size 1.27 1.27)) hide)
    )
    (pin "1" (uuid b8dce2c5-f39c-45b0-b3cc-d559492f79b8))
    (instances
      (project "directives"
        (path "/a442c838-4dd5-4486-8afe-ccab26ad4148"
          (reference "#PWR05") (unit 1) (value "GND") (footprint "")
        )
      )
    )
  )

  (symbol (lib_id "Device:L") (at 152.4 82.55 180) (unit 1)
    (in_bom yes) (on_board yes) (dnp no) (fields_autoplaced)
    (uuid 6ecb1219-f224-4524-b9b9-31bc191452b2)
    (property "Reference" "L2" (at 153.67 81.915 0)
      (effects (font (size 1.27 1.27)) (justify right))
    )
    (property "Value" "10u" (at 153.67 84.455 0)
      (effects (font (size 1.27 1.27)) (justify right))
    )
    (property "Footprint" "" (at 152.4 82.55 0)
      (effects (font (size 1.27 1.27)) hide)
    )
    (property "Datasheet" "~" (at 152.4 82.55 0)
      (effects (font (size 1.27 1.27)) hide)
    )
    (property "Sim.Device" "L" (at 152.4 82.55 0)
      (effects (font (size 1.27 1.27)) hide)
    )
    (pin "1" (uuid a53583dc-95c8-4fca-91b3-9355c491ff8e))
    (pin "2" (uuid adc9748a-7cbe-4cce-80d0-2d901552a4cf))
    (instances
      (project "directives"
        (path "/a442c838-4dd5-4486-8afe-ccab26ad4148"
          (reference "L2") (unit 1) (value "10u") (footprint "")
        )
      )
    )
  )

  (symbol (lib_id "Device:L") (at 139.7 82.55 0) (unit 1)
    (in_bom yes) (on_board yes) (dnp no) (fields_autoplaced)
    (uuid 8f5f8cd4-c7c2-4eda-87a0-28bcb11f6284)
    (property "Reference" "L1" (at 140.97 81.915 0)
      (effects (font (size 1.27 1.27)) (justify left))
    )
    (property "Value" "10u" (at 140.97 84.455 0)
      (effects (font (size 1.27 1.27)) (justify left))
    )
    (property "Footprint" "" (at 139.7 82.55 0)
      (effects (font (size 1.27 1.27)) hide)
    )
    (property "Datasheet" "~" (at 139.7 82.55 0)
      (effects (font (size 1.27 1.27)) hide)
    )
    (property "Sim.Device" "L" (at 139.7 82.55 0)
      (effects (font (size 1.27 1.27)) hide)
    )
    (pin "1" (uuid 0fe84496-e0c8-4141-8960-8b9cae8d2390))
    (pin "2" (uuid 203451e4-970e-42a8-abf2-211eb2fe3a4f))
    (instances
      (project "directives"
        (path "/a442c838-4dd5-4486-8afe-ccab26ad4148"
          (reference "L1") (unit 1) (value "10u") (footprint "")
        )
      )
    )
  )

  (symbol (lib_id "Simulation_SPICE:VSIN") (at 114.3 82.55 0) (unit 1)
    (in_bom yes) (on_board yes) (dnp no) (fields_autoplaced)
    (uuid b317d6a2-96aa-490a-abf8-a92f528701f9)
    (property "Reference" "V1" (at 118.11 81.915 0)
      (effects (font (size 1.27 1.27)) (justify left))
    )
    (property "Value" "${Sim.Device} ${Sim.Type}" (at 118.11 84.455 0)
      (effects (font (size 1.27 1.27)) (justify left))
    )
    (property "Footprint" "" (at 114.3 82.55 0)
      (effects (font (size 1.27 1.27)) hide)
    )
    (property "Datasheet" "~" (at 114.3 82.55 0)
      (effects (font (size 1.27 1.27)) hide)
    )
    (property "Sim.Device" "V" (at 114.3 82.55 0)
      (effects (font (size 1.27 1.27)) hide)
    )
    (property "Sim.Type" "SIN" (at 114.3 82.55 0)
      (effects (font (size 1.27 1.27)) hide)
    )
    (property "Sim.Params" "ampl=1 f=1k" (at 114.3 82.55 0)
      (effects (font (size 1.27 1.27)) hide)
    )
    (pin "1" (uuid 97129dd6-9c66-4077-b4e0-36ed8a999d2a))
    (pin "2" (uuid e7584aeb-a043-4b70-ad6e-fcf3f0fb48a0))
    (instances
      (project "directives"
        (path "/a442c838-4dd5-4486-8afe-ccab26ad4148"
          (reference "V1") (unit 1) (value "${Sim.Device} ${Sim.Type}") (footprint "")
        )
      )
    )
  )

  (symbol (lib_id "power:GND") (at 139.7 88.9 0) (unit 1)
    (in_bom yes) (on_board yes) (dnp no) (fields_autoplaced)
    (uuid d367ca1e-7a90-4b07-9f85-44b10ccbde65)
    (property "Reference" "#PWR04" (at 139.7 95.25 0)
      (effects (font (size 1.27 1.27)) hide)
    )
    (property "Value" "GND" (at 139.7 93.98 0)
      (effects (font (size 1.27 1.27)))
    )
    (property "Footprint" "" (at 139.7 88.9 0)
      (effects (font (size 1.27 1.27)) hide)
    )
    (property "Datasheet" "" (at 139.7 88.9 0)
      (effects (font (size 1.27 1.27)) hide)
    )
    (pin "1" (uuid fbef390e-09ec-4cc4-aee4-a5f30cbbb48d))
    (instances
      (project "directives"
        (path "/a442c838-4dd5-4486-8afe-ccab26ad4148"
          (reference "#PWR04") (unit 1) (value "GND") (footprint "")
        )
      )
    )
  )

  (symbol (lib_id "power:GND") (at 114.3 88.9 0) (unit 1)
    (in_bom yes) (on_board yes) (dnp no) (fields_autoplaced)
    (uuid fc591c2b-c8ca-4c4e-a219-4f95f5b3758b)
    (property "Reference" "#PWR01" (at 114.3 95.25 0)
      (effects (font (size 1.27 1.27)) hide)
    )
    (property "Value" "GND" (at 114.3 93.98 0)
      (effects (font (size 1.27 1.27)))
    )
    (property "Footprint" "" (at 114.3 88.9 0)
      (effects (font (size 1.27 1.27)) hide)
    )
    (property "Datasheet" "" (at 114.3 88.9 0)
      (effects (font (size 1.27 1.27)) hide)
    )
    (pin "1" (uuid 4504f1bf-35c5-490f-a53a-2a5a9d73ed5b))
    (instances
      (project "directives"
        (path "/a442c838-4dd5-4486-8afe-ccab26ad4148"
          (reference "#PWR01") (unit 1) (value "GND") (footprint "")
        )
      )
    )
  )

  (sheet_instances
    (path "/a442c838-4dd5-4486-8afe-ccab26ad4148" (page "1"))
  )
)
